{
    "products": [
        {
            "id": 234,
            "name": "Same day Delivery",
            "price": 450,
            "specialPrice": 250,
            "subname": "Wedding Flower"     
        },
        {
            "id": 237,
            "name": "Basket of Gladness",
            "price": 99,
            "specialPrice": 70,
            "subname": "Bouquet"     
        },
        {
            "id": 236,
            "name": "Triple Pleasures",
            "price": 290,
            "specialPrice": 110,
            "subname": "Wedding Flower"    
        },
        {
            "id": "235",
            "name": "Tulip Flower Bouquet",
            "price": 110,
            "specialPrice": 50,
            "subname": "Flower Bouquet"      
        }
    ],
    "reseñas": [
        {
            "id": 234,
            "stars": 5
        },
        {
            "id": 234,
            "stars": 2
        },
        {
            "id": 235,
            "stars": 2
        },
        {
            "id": 236,
            "stars": 4
        },
        {
            "id": 236,
            "stars": 2
        },
        {
            "id": 237,
            "stars": 5
        }
    ]
}